simulation/qsim/Proyecto3.msim.vcd
$comment
	File created using the following command:
		vcd file Proyecto3.msim.vcd -direction
$end
$date
	Sat Dec 04 14:01:05 2021
$end
$version
	ModelSim Version 10.5b
$end
$timescale
	1ps
$end

$scope module calculadora_vhd_vec_tst $end
$var wire 1 ! a $end
$var wire 1 " A0 $end
$var wire 1 # A1 $end
$var wire 1 $ A2 $end
$var wire 1 % b $end
$var wire 1 & B0 $end
$var wire 1 ' B1 $end
$var wire 1 ( B2 $end
$var wire 1 ) c $end
$var wire 1 * d $end
$var wire 1 + e $end
$var wire 1 , f $end
$var wire 1 - S0 $end
$var wire 1 . S1 $end

$scope module i1 $end
$var wire 1 / gnd $end
$var wire 1 0 vcc $end
$var wire 1 1 unknown $end
$var wire 1 2 devoe $end
$var wire 1 3 devclrn $end
$var wire 1 4 devpor $end
$var wire 1 5 ww_devoe $end
$var wire 1 6 ww_devclrn $end
$var wire 1 7 ww_devpor $end
$var wire 1 8 ww_f $end
$var wire 1 9 ww_A0 $end
$var wire 1 : ww_A1 $end
$var wire 1 ; ww_A2 $end
$var wire 1 < ww_B0 $end
$var wire 1 = ww_B1 $end
$var wire 1 > ww_B2 $end
$var wire 1 ? ww_S1 $end
$var wire 1 @ ww_S0 $end
$var wire 1 A ww_b $end
$var wire 1 B ww_a $end
$var wire 1 C ww_e $end
$var wire 1 D ww_d $end
$var wire 1 E ww_c $end
$var wire 1 F \~QUARTUS_CREATED_ADC1~_CHSEL_bus\ [4] $end
$var wire 1 G \~QUARTUS_CREATED_ADC1~_CHSEL_bus\ [3] $end
$var wire 1 H \~QUARTUS_CREATED_ADC1~_CHSEL_bus\ [2] $end
$var wire 1 I \~QUARTUS_CREATED_ADC1~_CHSEL_bus\ [1] $end
$var wire 1 J \~QUARTUS_CREATED_ADC1~_CHSEL_bus\ [0] $end
$var wire 1 K \~QUARTUS_CREATED_ADC2~_CHSEL_bus\ [4] $end
$var wire 1 L \~QUARTUS_CREATED_ADC2~_CHSEL_bus\ [3] $end
$var wire 1 M \~QUARTUS_CREATED_ADC2~_CHSEL_bus\ [2] $end
$var wire 1 N \~QUARTUS_CREATED_ADC2~_CHSEL_bus\ [1] $end
$var wire 1 O \~QUARTUS_CREATED_ADC2~_CHSEL_bus\ [0] $end
$var wire 1 P \~QUARTUS_CREATED_GND~I_combout\ $end
$var wire 1 Q \~QUARTUS_CREATED_UNVM~~busy\ $end
$var wire 1 R \~QUARTUS_CREATED_ADC1~~eoc\ $end
$var wire 1 S \~QUARTUS_CREATED_ADC2~~eoc\ $end
$var wire 1 T \f~output_o\ $end
$var wire 1 U \b~output_o\ $end
$var wire 1 V \a~output_o\ $end
$var wire 1 W \e~output_o\ $end
$var wire 1 X \d~output_o\ $end
$var wire 1 Y \c~output_o\ $end
$var wire 1 Z \B1~input_o\ $end
$var wire 1 [ \A0~input_o\ $end
$var wire 1 \ \A1~input_o\ $end
$var wire 1 ] \B0~input_o\ $end
$var wire 1 ^ \inst|inst22|C~combout\ $end
$var wire 1 _ \A2~input_o\ $end
$var wire 1 ` \inst|inst5~combout\ $end
$var wire 1 a \B2~input_o\ $end
$var wire 1 b \inst|inst3~combout\ $end
$var wire 1 c \inst|inst6|C~0_combout\ $end
$var wire 1 d \inst|inst9~combout\ $end
$var wire 1 e \inst|inst6|S~combout\ $end
$var wire 1 f \inst|inst7|S~combout\ $end
$var wire 1 g \inst8|S~0_combout\ $end
$var wire 1 h \inst|inst7|C~0_combout\ $end
$var wire 1 i \S0~input_o\ $end
$var wire 1 j \S1~input_o\ $end
$var wire 1 k \inst8|S~1_combout\ $end
$var wire 1 l \inst4|S~0_combout\ $end
$var wire 1 m \inst|inst8|C~3_combout\ $end
$var wire 1 n \inst|inst8|C~6_combout\ $end
$var wire 1 o \inst9|S~0_combout\ $end
$var wire 1 p \inst5|S~1_combout\ $end
$var wire 1 q \inst5|S~0_combout\ $end
$var wire 1 r \inst5|S~2_combout\ $end
$var wire 1 s \inst5|S~3_combout\ $end
$var wire 1 t \inst10|inst1|C~0_combout\ $end
$var wire 1 u \inst6|S~4_combout\ $end
$var wire 1 v \inst11|inst3|C~0_combout\ $end
$var wire 1 w \inst6|S~2_combout\ $end
$var wire 1 x \inst6|S~3_combout\ $end
$var wire 1 y \inst7|S~5_combout\ $end
$var wire 1 z \inst7|S~2_combout\ $end
$var wire 1 { \inst7|S~3_combout\ $end
$var wire 1 | \inst7|S~4_combout\ $end
$upscope $end
$upscope $end
$enddefinitions $end
#0
$dumpvars
0!
1"
1#
1$
0%
0&
0'
0(
0)
0*
0+
0,
0-
0.
0/
10
x1
12
13
14
15
16
17
08
19
1:
1;
0<
0=
0>
0?
0@
0A
0B
0C
0D
0E
0P
zQ
zR
zS
0T
0U
0V
0W
0X
0Y
0Z
1[
1\
0]
0^
1_
0`
0a
0b
0c
0d
0e
0f
0g
0h
0i
0j
0k
0l
0m
0n
0o
0p
1q
1r
0s
0t
1u
1v
0w
0x
0y
0z
0{
0|
0F
0G
0H
0I
0J
0K
0L
0M
0N
0O
$end
#10000
1.
1?
1j
1l
1s
1w
1z
1{
1|
1Y
1W
1U
0|
1x
1E
1C
1A
1X
0Y
1)
1+
1%
1D
0E
1*
0)
#20000
0.
1-
0?
1@
1i
0j
0w
0z
1|
1Y
0{
1E
0|
1)
0Y
0E
0)
#30000
1.
1?
1j
0l
0s
1w
0x
1z
1{
0X
0W
0U
0D
0C
0A
0*
0+
0%
#40000
0.
0-
1(
0?
0@
1>
1a
0i
0j
0w
0z
1x
1b
1d
1g
0u
1X
1k
1f
1e
0x
1D
0X
1T
1w
1y
1*
0D
18
1|
1x
0*
1,
1X
1Y
1D
1E
1*
1)
#50000
1.
1?
1j
0k
1l
1s
0x
1z
0{
0|
0Y
0X
1W
1U
0T
1|
1{
0E
0D
1C
1A
08
1Y
0|
0)
0*
1+
1%
0,
1E
0Y
1)
0E
0)
#60000
0.
1-
0?
1@
1i
0j
0z
1|
1Y
1E
1)
#70000
1.
1?
1j
0l
0s
1z
0{
0|
0Y
0W
0U
1{
0E
0C
0A
0)
0+
0%
#80000
0.
0-
0(
1'
0?
0@
0>
1=
1Z
0a
0i
0j
0z
1k
1x
1|
0b
0d
1u
1c
0e
1m
1p
1t
0y
1Y
1X
1T
0|
0u
1z
0r
1s
0w
0c
1e
0{
1E
1D
18
1W
0Y
1w
0f
1{
0x
1)
1*
1,
1C
0E
0X
0g
1y
1x
1+
0)
0D
1X
1|
0k
0*
1D
0T
1Y
1*
08
1E
0,
1)
#90000
1.
1?
1j
1l
0s
1u
0x
0|
0Y
0X
0W
1U
1x
0E
0D
0C
1A
1X
0)
0*
0+
1%
1D
1*
#100000
0.
1-
0?
1@
1i
0j
0u
1|
1Y
0x
1E
0X
1)
0D
0*
#110000
1.
1?
1j
0l
1u
0|
0Y
0U
0E
0A
0)
0%
#120000
0.
0-
1(
0?
0@
1>
1a
0i
0j
1s
1x
1|
1b
1d
1g
1n
1Y
1X
1W
1o
1k
1f
1c
0e
1E
1D
1C
1T
1V
0w
0f
1h
0g
0y
1)
1*
1+
18
1B
0|
1g
1y
0x
1,
1!
0X
0Y
1|
0k
0D
0E
0T
1Y
0*
0)
08
1E
0,
1)
#130000
1.
1?
1j
1l
0o
0s
0u
1w
0|
0Y
0W
0V
1U
0E
0C
0B
1A
0)
0+
0!
1%
#140000
0.
1-
0?
1@
1i
0j
1u
0w
1|
1Y
1x
1E
1X
1)
1D
1*
#150000
1.
1?
1j
0l
0u
1w
0x
0|
0Y
0X
0U
0E
0D
0A
0)
0*
0%
#160000
0.
0-
0(
0'
1&
0?
0@
0>
0=
1<
1]
0Z
0a
0i
0j
0w
1o
1s
1x
1|
0b
0d
0n
0c
1e
0g
0y
1`
1l
0q
1r
1U
1Y
1X
1W
1V
0r
0|
1k
1w
0o
0h
0x
1A
1E
1D
1C
1B
0X
0V
1T
0Y
0k
1x
1%
1)
1*
1+
1!
0D
0B
18
0E
1X
0T
0*
0!
1,
0)
1D
08
1*
0,
#170000
1.
1?
1j
0l
1r
0s
1u
0x
0X
0W
0U
1x
1s
0D
0C
0A
1W
1X
0*
0+
0%
1C
1D
1+
1*
#180000
0.
1-
0?
1@
1i
0j
0r
0u
1|
1Y
0x
0s
1E
0W
0X
1)
0C
0D
0+
0*
#190000
1.
1?
1j
1r
1u
0|
0Y
0E
0)
#200000
0.
0-
1(
0?
0@
1>
1a
0i
0j
0r
1l
1s
1x
1b
1d
1g
1n
1X
1W
1U
1o
1k
1f
1c
0e
1D
1C
1A
1T
1V
0w
0f
1h
1y
1*
1+
1%
18
1B
1|
0k
0y
0x
1,
1!
0X
0T
1Y
0|
0D
08
1E
0Y
0*
0,
1)
0E
0)
#210000
1.
1?
1j
0l
0o
1r
0s
0u
1w
0W
0V
0U
1s
0C
0B
0A
1W
0+
0!
0%
1C
1+
#220000
0.
1-
0?
1@
1i
0j
0r
1u
0w
1|
1Y
1x
0s
1E
0W
1X
1)
0C
1D
0+
1*
#230000
1.
1?
1j
1r
0u
1w
0x
0|
0Y
0X
0E
0D
0)
0*
#240000
0.
0-
0(
1'
0?
0@
0>
1=
1Z
0a
0i
0j
0r
0w
1l
1o
1s
1x
0b
0d
0n
1^
1e
0g
0p
1q
1y
1X
1W
1V
1U
1|
1r
1k
0o
0e
0x
0s
1D
1C
1B
1A
0W
0X
0V
1T
1Y
1f
0h
1w
1*
1+
1!
1%
0C
0D
0B
18
1E
1x
0k
1g
0y
0+
0*
0!
1,
1)
0T
1X
0|
1k
08
1D
1T
0Y
0,
1*
18
0E
1,
0)
#250000
1.
1?
1j
0k
0l
0r
1s
1u
0x
0X
1W
0U
0T
1x
0s
0D
1C
0A
08
0W
1X
0*
1+
0%
0,
0C
1D
0+
1*
#260000
0.
1-
0?
1@
1i
0j
1r
0u
1|
1Y
0x
1s
1E
1W
0X
1)
1C
0D
1+
0*
#270000
1.
1?
1j
0r
0s
1u
0|
0Y
0W
0E
0C
0)
0+
#280000
0.
0-
1(
0?
0@
1>
1a
0i
0j
1r
1k
1l
1x
1b
1d
0g
1n
1X
1U
1T
1o
0k
0f
1h
1e
1D
1A
18
0T
1V
1f
0w
1k
1g
1y
1*
1%
1,
08
1B
1T
1|
0k
0x
0g
0y
0,
1!
18
0X
0T
1Y
0|
1k
1,
0D
08
1E
1T
0Y
0*
0,
1)
18
0E
1,
0)
#290000
1.
1?
1j
0k
0l
0o
0r
1s
0u
1w
1W
0V
0U
0T
0s
1C
0B
0A
08
0W
1+
0!
0%
0,
0C
0+
#300000
0.
1-
0?
1@
1i
0j
1r
1u
0w
1|
1Y
1x
1s
1E
1W
1X
1)
1C
1D
1+
1*
#310000
1.
1?
1j
0r
0s
0u
1w
0x
0|
0Y
0X
0W
0E
0D
0C
0)
0*
0+
#320000
0.
0-
0(
0'
0&
0?
0@
0>
0=
0<
0]
0Z
0a
0i
0j
0w
1k
1o
1x
0b
0d
0n
0e
1y
0^
0`
0m
1r
0t
1X
1V
1T
1u
0z
1|
0o
0h
0c
0x
1D
1B
18
0X
0V
1Y
0f
0k
0{
1*
1!
1,
0D
0B
1E
0T
0y
0*
0!
1)
08
0|
0,
0Y
0E
0)
#330000
1.
1?
1j
1l
1s
1w
1z
1{
1|
1Y
1W
1U
0|
1x
1E
1C
1A
1X
0Y
1)
1+
1%
1D
0E
1*
0)
#340000
0.
1-
0?
1@
1i
0j
0w
0z
1|
1Y
0{
1E
0|
1)
0Y
0E
0)
#350000
1.
1?
1j
0l
0s
1w
0x
1z
1{
0X
0W
0U
0D
0C
0A
0*
0+
0%
#360000
0.
0-
1(
0?
0@
1>
1a
0i
0j
0w
0z
1x
1b
1d
1g
0u
1X
1k
1f
1e
0x
1D
0X
1T
1w
1y
1*
0D
18
1|
1x
0*
1,
1X
1Y
1D
1E
1*
1)
#370000
1.
1?
1j
0k
1l
1s
0x
1z
0{
0|
0Y
0X
1W
1U
0T
1|
1{
0E
0D
1C
1A
08
1Y
0|
0)
0*
1+
1%
0,
1E
0Y
1)
0E
0)
#380000
0.
1-
0?
1@
1i
0j
0z
1|
1Y
1E
1)
#390000
1.
1?
1j
0l
0s
1z
0{
0|
0Y
0W
0U
1{
0E
0C
0A
0)
0+
0%
#400000
0.
0-
0(
1'
0?
0@
0>
1=
1Z
0a
0i
0j
0z
1k
1x
1|
0b
0d
1u
1c
0e
1m
1p
1t
0y
1Y
1X
1T
0|
0u
1z
0r
1s
0w
0c
1e
0{
1E
1D
18
1W
0Y
1w
0f
1{
0x
1)
1*
1,
1C
0E
0X
0g
1y
1x
1+
0)
0D
1X
1|
0k
0*
1D
0T
1Y
1*
08
1E
0,
1)
#410000
1.
1?
1j
1l
0s
1u
0x
0|
0Y
0X
0W
1U
1x
0E
0D
0C
1A
1X
0)
0*
0+
1%
1D
1*
#420000
0.
1-
0?
1@
1i
0j
0u
1|
1Y
0x
1E
0X
1)
0D
0*
#430000
1.
1?
1j
0l
1u
0|
0Y
0U
0E
0A
0)
0%
#440000
0.
0-
1(
0?
0@
1>
1a
0i
0j
1s
1x
1|
1b
1d
1g
1n
1Y
1X
1W
1o
1k
1f
1c
0e
1E
1D
1C
1T
1V
0w
0f
1h
0g
0y
1)
1*
1+
18
1B
0|
1g
1y
0x
1,
1!
0X
0Y
1|
0k
0D
0E
0T
1Y
0*
0)
08
1E
0,
1)
#450000
1.
1?
1j
1l
0o
0s
0u
1w
0|
0Y
0W
0V
1U
0E
0C
0B
1A
0)
0+
0!
1%
#460000
0.
1-
0?
1@
1i
0j
1u
0w
1|
1Y
1x
1E
1X
1)
1D
1*
#470000
1.
1?
1j
0l
0u
1w
0x
0|
0Y
0X
0U
0E
0D
0A
0)
0*
0%
#480000
0.
0-
0(
0'
1&
0?
0@
0>
0=
1<
1]
0Z
0a
0i
0j
0w
1o
1s
1x
1|
0b
0d
0n
0c
1e
0g
0y
1`
1l
0q
1r
1U
1Y
1X
1W
1V
0r
0|
1k
1w
0o
0h
0x
1A
1E
1D
1C
1B
0X
0V
1T
0Y
0k
1x
1%
1)
1*
1+
1!
0D
0B
18
0E
1X
0T
0*
0!
1,
0)
1D
08
1*
0,
#490000
1.
1?
1j
0l
1r
0s
1u
0x
0X
0W
0U
1x
1s
0D
0C
0A
1W
1X
0*
0+
0%
1C
1D
1+
1*
#500000
0.
1-
0?
1@
1i
0j
0r
0u
1|
1Y
0x
0s
1E
0W
0X
1)
0C
0D
0+
0*
#510000
1.
1?
1j
1r
1u
0|
0Y
0E
0)
#520000
0.
0-
1(
0?
0@
1>
1a
0i
0j
0r
1l
1s
1x
1b
1d
1g
1n
1X
1W
1U
1o
1k
1f
1c
0e
1D
1C
1A
1T
1V
0w
0f
1h
1y
1*
1+
1%
18
1B
1|
0k
0y
0x
1,
1!
0X
0T
1Y
0|
0D
08
1E
0Y
0*
0,
1)
0E
0)
#530000
1.
1?
1j
0l
0o
1r
0s
0u
1w
0W
0V
0U
1s
0C
0B
0A
1W
0+
0!
0%
1C
1+
#540000
0.
1-
0?
1@
1i
0j
0r
1u
0w
1|
1Y
1x
0s
1E
0W
1X
1)
0C
1D
0+
1*
#550000
1.
1?
1j
1r
0u
1w
0x
0|
0Y
0X
0E
0D
0)
0*
#560000
0.
0-
0(
1'
0?
0@
0>
1=
1Z
0a
0i
0j
0r
0w
1l
1o
1s
1x
0b
0d
0n
1^
1e
0g
0p
1q
1y
1X
1W
1V
1U
1|
1r
1k
0o
0e
0x
0s
1D
1C
1B
1A
0W
0X
0V
1T
1Y
1f
0h
1w
1*
1+
1!
1%
0C
0D
0B
18
1E
1x
0k
1g
0y
0+
0*
0!
1,
1)
0T
1X
0|
1k
08
1D
1T
0Y
0,
1*
18
0E
1,
0)
#570000
1.
1?
1j
0k
0l
0r
1s
1u
0x
0X
1W
0U
0T
1x
0s
0D
1C
0A
08
0W
1X
0*
1+
0%
0,
0C
1D
0+
1*
#580000
0.
1-
0?
1@
1i
0j
1r
0u
1|
1Y
0x
1s
1E
1W
0X
1)
1C
0D
1+
0*
#590000
1.
1?
1j
0r
0s
1u
0|
0Y
0W
0E
0C
0)
0+
#600000
0.
0-
1(
0?
0@
1>
1a
0i
0j
1r
1k
1l
1x
1b
1d
0g
1n
1X
1U
1T
1o
0k
0f
1h
1e
1D
1A
18
0T
1V
1f
0w
1k
1g
1y
1*
1%
1,
08
1B
1T
1|
0k
0x
0g
0y
0,
1!
18
0X
0T
1Y
0|
1k
1,
0D
08
1E
1T
0Y
0*
0,
1)
18
0E
1,
0)
#610000
1.
1?
1j
0k
0l
0o
0r
1s
0u
1w
1W
0V
0U
0T
0s
1C
0B
0A
08
0W
1+
0!
0%
0,
0C
0+
#620000
0.
1-
0?
1@
1i
0j
1r
1u
0w
1|
1Y
1x
1s
1E
1W
1X
1)
1C
1D
1+
1*
#630000
1.
1?
1j
0r
0s
0u
1w
0x
0|
0Y
0X
0W
0E
0D
0C
0)
0*
0+
#640000
0.
0-
0(
0'
0&
0?
0@
0>
0=
0<
0]
0Z
0a
0i
0j
0w
1k
1o
1x
0b
0d
0n
0e
1y
0^
0`
0m
1r
0t
1X
1V
1T
1u
0z
1|
0o
0h
0c
0x
1D
1B
18
0X
0V
1Y
0f
0k
0{
1*
1!
1,
0D
0B
1E
0T
0y
0*
0!
1)
08
0|
0,
0Y
0E
0)
#650000
1.
1?
1j
1l
1s
1w
1z
1{
1|
1Y
1W
1U
0|
1x
1E
1C
1A
1X
0Y
1)
1+
1%
1D
0E
1*
0)
#660000
0.
1-
0?
1@
1i
0j
0w
0z
1|
1Y
0{
1E
0|
1)
0Y
0E
0)
#670000
1.
1?
1j
0l
0s
1w
0x
1z
1{
0X
0W
0U
0D
0C
0A
0*
0+
0%
#680000
0.
0-
1(
0?
0@
1>
1a
0i
0j
0w
0z
1x
1b
1d
1g
0u
1X
1k
1f
1e
0x
1D
0X
1T
1w
1y
1*
0D
18
1|
1x
0*
1,
1X
1Y
1D
1E
1*
1)
#690000
1.
1?
1j
0k
1l
1s
0x
1z
0{
0|
0Y
0X
1W
1U
0T
1|
1{
0E
0D
1C
1A
08
1Y
0|
0)
0*
1+
1%
0,
1E
0Y
1)
0E
0)
#700000
0.
1-
0?
1@
1i
0j
0z
1|
1Y
1E
1)
#710000
1.
1?
1j
0l
0s
1z
0{
0|
0Y
0W
0U
1{
0E
0C
0A
0)
0+
0%
#720000
0.
0-
0(
1'
0?
0@
0>
1=
1Z
0a
0i
0j
0z
1k
1x
1|
0b
0d
1u
1c
0e
1m
1p
1t
0y
1Y
1X
1T
0|
0u
1z
0r
1s
0w
0c
1e
0{
1E
1D
18
1W
0Y
1w
0f
1{
0x
1)
1*
1,
1C
0E
0X
0g
1y
1x
1+
0)
0D
1X
1|
0k
0*
1D
0T
1Y
1*
08
1E
0,
1)
#730000
1.
1?
1j
1l
0s
1u
0x
0|
0Y
0X
0W
1U
1x
0E
0D
0C
1A
1X
0)
0*
0+
1%
1D
1*
#740000
0.
1-
0?
1@
1i
0j
0u
1|
1Y
0x
1E
0X
1)
0D
0*
#750000
1.
1?
1j
0l
1u
0|
0Y
0U
0E
0A
0)
0%
#760000
0.
0-
1(
0?
0@
1>
1a
0i
0j
1s
1x
1|
1b
1d
1g
1n
1Y
1X
1W
1o
1k
1f
1c
0e
1E
1D
1C
1T
1V
0w
0f
1h
0g
0y
1)
1*
1+
18
1B
0|
1g
1y
0x
1,
1!
0X
0Y
1|
0k
0D
0E
0T
1Y
0*
0)
08
1E
0,
1)
#770000
1.
1?
1j
1l
0o
0s
0u
1w
0|
0Y
0W
0V
1U
0E
0C
0B
1A
0)
0+
0!
1%
#780000
0.
1-
0?
1@
1i
0j
1u
0w
1|
1Y
1x
1E
1X
1)
1D
1*
#790000
1.
1?
1j
0l
0u
1w
0x
0|
0Y
0X
0U
0E
0D
0A
0)
0*
0%
#800000
0.
0-
0(
0'
1&
0?
0@
0>
0=
1<
1]
0Z
0a
0i
0j
0w
1o
1s
1x
1|
0b
0d
0n
0c
1e
0g
0y
1`
1l
0q
1r
1U
1Y
1X
1W
1V
0r
0|
1k
1w
0o
0h
0x
1A
1E
1D
1C
1B
0X
0V
1T
0Y
0k
1x
1%
1)
1*
1+
1!
0D
0B
18
0E
1X
0T
0*
0!
1,
0)
1D
08
1*
0,
#810000
1.
1?
1j
0l
1r
0s
1u
0x
0X
0W
0U
1x
1s
0D
0C
0A
1W
1X
0*
0+
0%
1C
1D
1+
1*
#820000
0.
1-
0?
1@
1i
0j
0r
0u
1|
1Y
0x
0s
1E
0W
0X
1)
0C
0D
0+
0*
#830000
1.
1?
1j
1r
1u
0|
0Y
0E
0)
#840000
0.
0-
1(
0?
0@
1>
1a
0i
0j
0r
1l
1s
1x
1b
1d
1g
1n
1X
1W
1U
1o
1k
1f
1c
0e
1D
1C
1A
1T
1V
0w
0f
1h
1y
1*
1+
1%
18
1B
1|
0k
0y
0x
1,
1!
0X
0T
1Y
0|
0D
08
1E
0Y
0*
0,
1)
0E
0)
#850000
1.
1?
1j
0l
0o
1r
0s
0u
1w
0W
0V
0U
1s
0C
0B
0A
1W
0+
0!
0%
1C
1+
#860000
0.
1-
0?
1@
1i
0j
0r
1u
0w
1|
1Y
1x
0s
1E
0W
1X
1)
0C
1D
0+
1*
#870000
1.
1?
1j
1r
0u
1w
0x
0|
0Y
0X
0E
0D
0)
0*
#880000
0.
0-
0(
1'
0?
0@
0>
1=
1Z
0a
0i
0j
0r
0w
1l
1o
1s
1x
0b
0d
0n
1^
1e
0g
0p
1q
1y
1X
1W
1V
1U
1|
1r
1k
0o
0e
0x
0s
1D
1C
1B
1A
0W
0X
0V
1T
1Y
1f
0h
1w
1*
1+
1!
1%
0C
0D
0B
18
1E
1x
0k
1g
0y
0+
0*
0!
1,
1)
0T
1X
0|
1k
08
1D
1T
0Y
0,
1*
18
0E
1,
0)
#890000
1.
1?
1j
0k
0l
0r
1s
1u
0x
0X
1W
0U
0T
1x
0s
0D
1C
0A
08
0W
1X
0*
1+
0%
0,
0C
1D
0+
1*
#900000
0.
1-
0?
1@
1i
0j
1r
0u
1|
1Y
0x
1s
1E
1W
0X
1)
1C
0D
1+
0*
#910000
1.
1?
1j
0r
0s
1u
0|
0Y
0W
0E
0C
0)
0+
#920000
0.
0-
1(
0?
0@
1>
1a
0i
0j
1r
1k
1l
1x
1b
1d
0g
1n
1X
1U
1T
1o
0k
0f
1h
1e
1D
1A
18
0T
1V
1f
0w
1k
1g
1y
1*
1%
1,
08
1B
1T
1|
0k
0x
0g
0y
0,
1!
18
0X
0T
1Y
0|
1k
1,
0D
08
1E
1T
0Y
0*
0,
1)
18
0E
1,
0)
#930000
1.
1?
1j
0k
0l
0o
0r
1s
0u
1w
1W
0V
0U
0T
0s
1C
0B
0A
08
0W
1+
0!
0%
0,
0C
0+
#940000
0.
1-
0?
1@
1i
0j
1r
1u
0w
1|
1Y
1x
1s
1E
1W
1X
1)
1C
1D
1+
1*
#950000
1.
1?
1j
0r
0s
0u
1w
0x
0|
0Y
0X
0W
0E
0D
0C
0)
0*
0+
#960000
0.
0-
0(
0'
0&
0?
0@
0>
0=
0<
0]
0Z
0a
0i
0j
0w
1k
1o
1x
0b
0d
0n
0e
1y
0^
0`
0m
1r
0t
1X
1V
1T
1u
0z
1|
0o
0h
0c
0x
1D
1B
18
0X
0V
1Y
0f
0k
0{
1*
1!
1,
0D
0B
1E
0T
0y
0*
0!
1)
08
0|
0,
0Y
0E
0)
#970000
1.
1?
1j
1l
1s
1w
1z
1{
1|
1Y
1W
1U
0|
1x
1E
1C
1A
1X
0Y
1)
1+
1%
1D
0E
1*
0)
#980000
0.
1-
0?
1@
1i
0j
0w
0z
1|
1Y
0{
1E
0|
1)
0Y
0E
0)
#990000
1.
1?
1j
0l
0s
1w
0x
1z
1{
0X
0W
0U
0D
0C
0A
0*
0+
0%
